------------------------
start_time: 1520286152
end_time: 1520372552
total:30888
------------------------
------------------------
start_time: 1520372552
end_time: 1520458952
total:48812
------------------------
------------------------
start_time: 1520458952
end_time: 1520545352
total:51758
------------------------
------------------------
start_time: 1520545352
end_time: 1520631752
total:71242
------------------------
------------------------
start_time: 1520631752
end_time: 1520718152
total:39289
------------------------
------------------------
start_time: 1520718152
end_time: 1520804552
total:43190
------------------------
------------------------
start_time: 1520804552
end_time: 1520890952
total:30269
------------------------
------------------------
start_time: 1520890952
end_time: 1520977352
total:36353
------------------------
------------------------
start_time: 1520977352
end_time: 1521063752
total:43475
------------------------
------------------------
start_time: 1521063752
end_time: 1521150152
total:58988
------------------------
------------------------
start_time: 1521150152
end_time: 1521236552
total:38468
------------------------
------------------------
start_time: 1521236552
end_time: 1521322952
total:36403
------------------------
------------------------
start_time: 1521322952
end_time: 1521409352
total:86558
------------------------
------------------------
start_time: 1521409352
end_time: 1521495752
total:71506
------------------------
------------------------
start_time: 1521495752
end_time: 1521582152
total:0
------------------------
------------------------
start_time: 1521582152
end_time: 1521668552
total:20421
------------------------
------------------------
start_time: 1521668552
end_time: 1521754952
total:43624
------------------------
------------------------
start_time: 1521754952
end_time: 1521841352
total:50996
------------------------
------------------------
start_time: 1521841352
end_time: 1521927752
total:32650
------------------------
------------------------
start_time: 1521927752
end_time: 1522014152
total:24877
------------------------
------------------------
start_time: 1522014152
end_time: 1522100552
total:48447
------------------------
------------------------
start_time: 1522100552
end_time: 1522186952
total:61146
------------------------
------------------------
start_time: 1522186952
end_time: 1522273352
total:43826
------------------------
------------------------
start_time: 1522273352
end_time: 1522359752
total:68856
------------------------
------------------------
start_time: 1522359752
end_time: 1522446152
total:96737
------------------------
------------------------
start_time: 1522446152
end_time: 1522532552
total:61937
------------------------
------------------------
start_time: 1522532552
end_time: 1522618952
total:51746
------------------------
------------------------
start_time: 1522618952
end_time: 1522705352
total:14343
------------------------
------------------------
start_time: 1522705352
end_time: 1522791752
total:42410
------------------------
------------------------
start_time: 1522791752
end_time: 1522878152
total:49524
------------------------
------------------------
start_time: 1522878152
end_time: 1522964552
total:45377
------------------------
------------------------
start_time: 1522964552
end_time: 1523050952
total:37773
------------------------
------------------------
start_time: 1523050952
end_time: 1523137352
total:31844
------------------------
------------------------
start_time: 1523137352
end_time: 1523223752
total:31199
------------------------
------------------------
start_time: 1523223752
end_time: 1523310152
total:66560
------------------------
------------------------
start_time: 1523310152
end_time: 1523396552
total:17943
------------------------
------------------------
start_time: 1523396552
end_time: 1523482952
total:41337
------------------------
------------------------
start_time: 1523482952
end_time: 1523569352
total:73763
------------------------
------------------------
start_time: 1523569352
end_time: 1523655752
total:89318
------------------------
------------------------
start_time: 1523655752
end_time: 1523742152
total:55078
------------------------
------------------------
start_time: 1523742152
end_time: 1523828552
total:49222
------------------------
------------------------
start_time: 1523828552
end_time: 1523914952
total:49201
------------------------
------------------------
start_time: 1523914952
end_time: 1524001352
total:10545
------------------------
------------------------
start_time: 1524001352
end_time: 1524087752
total:14914
------------------------
------------------------
start_time: 1524087752
end_time: 1524174152
total:45782
------------------------
------------------------
start_time: 1524174152
end_time: 1524260552
total:57519
------------------------
------------------------
start_time: 1524260552
end_time: 1524346952
total:65786
------------------------
------------------------
start_time: 1524346952
end_time: 1524433352
total:49231
------------------------
------------------------
start_time: 1524433352
end_time: 1524519752
total:42981
------------------------
------------------------
start_time: 1524519752
end_time: 1524606152
total:65190
------------------------
------------------------
start_time: 1524606152
end_time: 1524692552
total:107569
------------------------
------------------------
start_time: 1524692552
end_time: 1524778952
total:49948
------------------------
------------------------
start_time: 1524778952
end_time: 1524865352
total:52202
------------------------
------------------------
start_time: 1524865352
end_time: 1524951752
total:51803
------------------------
------------------------
start_time: 1524951752
end_time: 1525038152
total:48729
------------------------
------------------------
start_time: 1525038152
end_time: 1525124552
total:47190
------------------------
------------------------
start_time: 1525124552
end_time: 1525210952
total:52421
------------------------
------------------------
start_time: 1525210952
end_time: 1525297352
total:32335
------------------------
